Username;First Name;Last Name;Project;SubProject;Role;Phone;Skype;Email;Comment
johnecon;Ioannis;Oikonomidis;*;*;Supervisor;;;johnnyecon@gmail.com;
hsto;Harrald;Storrle;02264F15;*;Supervisor;;;hsto@dtu.dk;
s133998;Andreas Kær;Eriksen;02264F15;1A;Leader;;skype_1;s133998@student.dtu.dk;
s122176;Ernst Magnus;Nylander;02264F15;1A;Contibutor;;skype_2;s122176@student.dtu.dk;
s133987;Mike Østergaard;Behrens;02264F15;1B;Leader;;skype_28;s133987@student.dtu.dk;Comments here
